REQUEST TIME',ORDER ID',DEALER TXN ID',OPERATOR ID',OPERATOR KEY',OPERATOR NAME',SERVICE TYPE',ACCOUNT',OPENING BAL',AMOUNT CHARGED',DR/CR',AMOUNT',REFUND REF ID',STATUS',ERROR CODE',ERROR DESCRIPTION',OPTIONAL1',OPTIONAL2',OPTIONAL3',OPTIONAL4',OPTIONAL5',OPTIONAL6',OPTIONAL7',OPTIONAL8',OPTIONAL9',TRANSACTION TYPE,,Agency
2020-05-16 09:08:31',1200516090831LAUVT',07780100027020',013709926813',DMV',Beneficiary Verification (Penny Drop)',REMITTANCE',9687263090',171716.20',2.18',DR',1.00',',SUCCESS',TXN',Transaction Successful',',IMPS',07780100027020',BARB0TREASU',',RAJUAHIRSONANDLALAHI',',',',TRANSACTION,,New A K Mobile
2020-05-16 09:08:52',1200516090852CSBFB',341Y7858116052020090849',013709121002',DMI',Money Transfer (Domestic)',REMITTANCE',7424930350',171714.02',2507.72',DR',2500.00',',SUCCESS',TXN',Transaction Successful',',IMPS',07780100027020',BARB0TREASU',BANK OF BARODA',RAJUAHIRSONANDLALAHI',',',',TRANSACTION,,New A K Mobile
2020-05-16 09:12:09',1200516091209EVMYJ',341Y7858116052020091208',013709120927',DMI',Money Transfer (Domestic)',REMITTANCE',7424930350',169206.30',2507.72',DR',2500.00',',SUCCESS',TXN',Transaction Successful',',IMPS',07780100027020',BARB0TREASU',BANK OF BARODA',RAJUAHIRSONANDLALAHI',',',',TRANSACTION,,New A K Mobile
2020-05-16 09:16:29',1200516091629NUFYY',32356173460',013709934319',DMV',Beneficiary Verification (Penny Drop)',REMITTANCE',7310115136',166698.58',2.18',DR',1.00',',SUCCESS',TXN',Transaction Successful',',IMPS',32356173460',SBIN0004343',',Mrs  DEVANTI  DEVI',',',',TRANSACTION,,Randev mobile
2020-05-16 09:17:04',1200516091704VNCZN',341Y7858116052020091644',013709123113',DMI',Money Transfer (Domestic)',REMITTANCE',7310115136',166696.40',4010.65',DR',4000.00',',SUCCESS',TXN',Transaction Successful',',IMPS',32356173460',SBIN0004343',STATE BANK OF INDIA',Mrs  DEVANTI  DEVI',',',',TRANSACTION,,Randev mobile
2020-05-16 09:19:12',1200516091912JEYEZ',16052020091915',478528444',ATP',Airtel',PREPAID',7041348001',162685.75',148.08',DR',149.00',',SUCCESS',TXN',Transaction Successful',',',',',',',',',',TRANSACTION,,
2020-05-16 09:24:31',1200516092431TEUES',341Y7858116052020092356',013709125308',DMI',Money Transfer (Domestic)',REMITTANCE',7489820095',162537.67',604.80',DR',600.00',',SUCCESS',TXN',Transaction Successful',',IMPS',46388100004582',BARB0COLABA',BANK OF BARODA',Krishnalal',',',',TRANSACTION,,Bhavani mobile
2020-05-16 09:27:19',1200516092719YNXVL',303002011000860',013709949467',DMV',Beneficiary Verification (Penny Drop)',REMITTANCE',9924676538',161932.87',2.18',DR',1.00',',SUCCESS',TXN',Transaction Successful',',IMPS',303002011000860',UBIN0551945',',RAMVILAS S/O MANGRU ',',',',TRANSACTION,,Balaji mobile
2020-05-16 09:27:58',1200516092758DNDDH',341Y7858116052020092741',013709124979',DMI',Money Transfer (Domestic)',REMITTANCE',9924676538',161930.69',5012.60',DR',5000.00',',SUCCESS',TXN',Transaction Successful',',IMPS',303002011000860',UBIN0551945',UNION BANK OF INDIA',RAMVILAS S/O MANGRU',',',',TRANSACTION,,Balaji mobile
2020-05-16 09:28:44',1200516092844WLQUA',341Y7858116052020092831',013709127025',DMI',Money Transfer (Domestic)',REMITTANCE',9924676538',156918.09',5012.60',DR',5000.00',',SUCCESS',TXN',Transaction Successful',',IMPS',303002011000860',UBIN0551945',UNION BANK OF INDIA',RAMVILAS S/O MANGRU',',',',TRANSACTION,,Balaji mobile
2020-05-16 09:34:38',1200516093438DGYYW',713602010003813',013709960163',DMV',Beneficiary Verification (Penny Drop)',REMITTANCE',9724566122',151905.49',2.18',DR',1.00',',SUCCESS',TXN',Transaction Successful',',IMPS',713602010003813',UBIN0551945',',VIDYADHAR CHANDURKAR',',',',TRANSACTION,,Mizaan Infotech Services Private Limited Agent
2020-05-16 09:34:42',1200516093442CULZQ',341Y7858116052020093429',013709128115',DMI',Money Transfer (Domestic)',REMITTANCE',6354585219',151903.31',3008.70',DR',3000.00',',SUCCESS',TXN',Transaction Successful',',IMPS',1971000100606052',PUNB0197100',PUNJAB NATIONAL BANK',ARJUN PASWAN',',',',TRANSACTION,,Perfect Mobile
2020-05-16 09:35:58',1200516093558XZGJY',341Y7858116052020093545',013709128560',DMI',Money Transfer (Domestic)',REMITTANCE',6354585219',148894.61',3008.70',DR',3000.00',',SUCCESS',TXN',Transaction Successful',',IMPS',1971000100606052',PUNB0197100',PUNJAB NATIONAL BANK',ARJUN PASWAN',',',',TRANSACTION,,Perfect Mobile
2020-05-16 09:36:10',1200516093610HSKAZ',341Y7858116052020093546',013709128625',DMI',Money Transfer (Domestic)',REMITTANCE',9327108774',145885.91',5012.60',DR',5000.00',',SUCCESS',TXN',Transaction Successful',',IMPS',713602010003813',UBIN0551945',UNION BANK OF INDIA',VIDYADHAR CHANDURKAR',',',',TRANSACTION,,Mizaan Infotech Services Private Limited Agent
2020-05-16 09:37:44',1200516093744PFLQQ',4001217968',013709964688',DMV',Beneficiary Verification (Penny Drop)',REMITTANCE',6354585219',140873.31',2.18',DR',1.00',',SUCCESS',TXN',Transaction Successful',',IMPS',4001217968',CBIN0281102',',Mrs. GEETA  DEVI',',',',TRANSACTION,,Perfect Mobile
2020-05-16 09:38:20',1200516093820ZHSJW',341Y7858116052020093805',013709129444',DMI',Money Transfer (Domestic)',REMITTANCE',6354585219',140871.13',1004.80',DR',1000.00',',SUCCESS',TXN',Transaction Successful',',IMPS',4001217968',CBIN0281102',CENTRAL BANK OF INDIA',Mrs. GEETA  DEVI',',',',TRANSACTION,,Perfect Mobile
2020-05-16 09:38:53',1200516093853BEVNC',341Y7858116052020093808',013709129645',DMI',Money Transfer (Domestic)',REMITTANCE',8758138412',139866.33',2006.75',DR',2000.00',',SUCCESS',TXN',Transaction Successful',',IMPS',83302010022993',SYNB0002915',SYNDICATE BANK',MEENA',',',',TRANSACTION,,F F Enterprise
2020-05-16 09:40:21',1200516094021TBDNE',61283623483',013709968253',DMV',Beneficiary Verification (Penny Drop)',REMITTANCE',9712271261',137859.58',2.18',DR',1.00',',SUCCESS',TXN',Transaction Successful',',IMPS',61283623483',SBIN0004343',',Miss  Usha  Kumari',',',',TRANSACTION,,Santkrupa Mobile
2020-05-16 09:41:18',1200516094118PVLSD',752201500140',013709970081',DMV',Beneficiary Verification (Penny Drop)',REMITTANCE',8709979104',137857.40',2.18',DR',1.00',',SUCCESS',TXN',Transaction Successful',',IMPS',752201500140',ICIC0000011',',ANAND SAH',',',',TRANSACTION,,Bhavani mobile
2020-05-16 09:41:29',1200516094129KBCKR',341Y7858116052020094124',013709130668',DMI',Money Transfer (Domestic)',REMITTANCE',9712271261',137855.22',3008.70',DR',3000.00',',SUCCESS',TXN',Transaction Successful',',IMPS',61283623483',SBIN0004343',STATE BANK OF INDIA',Miss  Usha  Kumari',',',',TRANSACTION,,Santkrupa Mobile
2020-05-16 09:41:52',1200516094152PDBVW',341Y7858116052020094137',013709130776',DMI',Money Transfer (Domestic)',REMITTANCE',6354585219',134846.52',1004.80',DR',1000.00',',SUCCESS',TXN',Transaction Successful',',IMPS',4001217968',CBIN0281102',CENTRAL BANK OF INDIA',Mrs. GEETA  DEVI',',',',TRANSACTION,,Perfect Mobile
2020-05-16 09:41:54',1200516094154YAJPX',341Y7858116052020094152',013709129881',DMI',Money Transfer (Domestic)',REMITTANCE',9712271261',133841.72',3008.70',DR',3000.00',',SUCCESS',TXN',Transaction Successful',',IMPS',61283623483',SBIN0004343',STATE BANK OF INDIA',Miss  Usha  Kumari',',',',TRANSACTION,,Santkrupa Mobile
2020-05-16 09:42:00',1200516094200FWSXK',341Y7858116052020094134',013709129887',DMI',Money Transfer (Domestic)',REMITTANCE',8709979104',130833.02',2006.75',DR',2000.00',',SUCCESS',TXN',Transaction Successful',',IMPS',752201500140',ICIC0000011',ICICI BANK',ANAND SAH',',',',TRANSACTION,,Bhavani mobile
2020-05-16 09:45:08',1200516094508UTHLH',341Y7858116052020094505',013709132252',DMI',Money Transfer (Domestic)',REMITTANCE',6354585219',128826.27',1004.80',DR',1000.00',',SUCCESS',TXN',Transaction Successful',',IMPS',4001217968',CBIN0281102',CENTRAL BANK OF INDIA',Mrs. GEETA  DEVI',',',',TRANSACTION,,Perfect Mobile
2020-05-16 09:47:54',1200516094754KMHAF',341Y7858116052020094714',013709131761',DMI',Money Transfer (Domestic)',REMITTANCE',8141844222',127821.47',104.80',DR',100.00',',SUCCESS',TXN',Transaction Successful',',IMPS',183701507874',ICIC0000011',ICICI BANK',NIMESH PANCHAL',',',',TRANSACTION,,Mizaan Infotech Services Private Limited Agent
